Geospatial Data Carpentry for Urbanism: Exploring Data Frames & Data frame Manipulation with dplyr
…
Multiple groups and summary variables

You can also group by multiple columns:

R

gapminder %>%
  group_by(continent, year) %>%
  summarize(avg_gdpPercap = mean(gdpPercap))

OUTPUT

# A tibble: 60 × 3
# Groups:   continent [5]
   continent  year avg_gdpPercap
   <chr>     <int>         <dbl>
 1 Africa     1952         1253.
 2 Africa     1957         1385.
 3 Africa     1962         1598.
 4 Africa     1967         2050.
 5 Africa     1972         2340.
 6 Africa     1977         2586.
 7 Africa     1982         2482.
 8 Africa     1987         2283.
 9 Africa     1992         2282.
10 Africa     1997         2379.
# ℹ 50 more rows
…
